{
  "data": [
    {
      "taskId": "75098344-f3fc-11ea-adc1-0242ac120002",
      "robotId": "78abfbd4-6613-42a6-a691-23c3748fa346",
      "startedAt": 0,
      "exitedAt": 0,
      "execDuration": 0,
      "receivedStartReortAt": 0,
      "receivedExitReortAt": 0,
      "status": "queued",
      "resultInfo": "",
      "success": 0,
      "fail": 0,
      "error": 0,
      "dataVersion": 1,
      "createTime": 1592617637000,
      "createdBy": "user@kyocera.jp",
      "updateTime": 1592618421000,
      "updatedBy": "user@kyocera.jp"
    },
    {
      "taskId": "1528f46e-f33e-11ea-adc1-0242ac120002",
      "robotId": "78abfbd4-6613-42a6-a691-23c3748fa346",
      "startedAt": 1592620113000,
      "exitedAt": 0,
      "execDuration": 0,
      "receivedStartReortAt": 1592620112000,
      "receivedExitReortAt": 0,
      "status": "processing",
      "resultInfo": "",
      "success": 21,
      "fail": 0,
      "error": 0,
      "dataVersion": 1,
      "createTime": 1592617637000,
      "createdBy": "user@kyocera.jp",
      "updateTime": 1592618421000,
      "updatedBy": "user@kyocera.jp"
    },
    {
      "taskId": "5e1d9cfa-233c-11eb-adc1-0242ac120002",
      "robotId": "78abfbd4-6613-42a6-a691-23c3748fa346",
      "startedAt": 1592619013000,
      "exitedAt": 0,
      "execDuration": 0,
      "receivedStartReortAt": 1592619012000,
      "receivedExitReortAt": 0,
      "status": "suspended",
      "resultInfo": "",
      "success": 32,
      "fail": 6,
      "error": 1,
      "dataVersion": 1,
      "createTime": 1592617637000,
      "createdBy": "user@kyocera.jp",
      "updateTime": 1592620110000,
      "updatedBy": "user@kyocera.jp"
    },
    {
      "taskId": "54b50d1e-a4a6-435e-9a38-0eaa91aa2559",
      "robotId": "78abfbd4-6613-42a6-a691-23c3748fa346",
      "startedAt": 1592660113000,
      "exitedAt": 1592661502000,
      "execDuration": 41389000,
      "receivedStartReortAt": 1592652512000,
      "receivedExitReortAt": 1592693902000,
      "status": "succeeded",
      "resultInfo": "All success",
      "success": 73,
      "fail": 0,
      "error": 0,
      "dataVersion": 1,
      "createTime": 1592617637000,
      "createdBy": "user@kyocera.jp",
      "updateTime": 1592661502000,
      "updatedBy": "user@kyocera.jp"
    },
    {
      "taskId": "ac5f5a3c-233e-11eb-adc1-0242ac120002",
      "robotId": "78abfbd4-6613-42a6-a691-23c3748fa346",
      "startedAt": 1591990021000,
      "exitedAt": 1591996666000,
      "execDuration": 6645000,
      "receivedStartReortAt": 1591990019000,
      "receivedExitReortAt": 1591996664000,
      "status": "failed",
      "resultInfo": "Finished with some fails.",
      "success": 70,
      "fail": 2,
      "error": 0,
      "dataVersion": 1,
      "createTime": 1591988886000,
      "createdBy": "user@kyocera.jp",
      "updateTime": 1591996666000,
      "updatedBy": "user@kyocera.jp"
    }
  ],
  "count": 5,
  "time": 1592693902000,
  "paging": {
    "page": 2,
    "size": 5,
    "totalPages": 8,
    "totalCount": 37
  }
}