{
    "data": [
        {
            "taskId": "54b50d1e-a4a6-435e-9a38-0eaa91aa2559",
            "robotIds": [
                "78abfbd4-6613-42a6-a691-23c3748fa346",
                "0149308a-af44-4d03-9864-c5ab5561cd91",
                "0c2ede75-65b9-4bce-99d5-a82c2a685655"
            ],
            "createdBy": "e2e_test_account",
            "createTime": 1601165183557,
            "dataVersion": 1,
            "start": {
                "condition": "immediately"
            },
            "exit": {
                "condition": "specifiedNumberOfTimes",
                "option": {
                    "numberOfRuns": 73
                }
            },
            "jobId": "e64f75d2-78b4-47d2-9318-fd370d55c8d1",
            "job": {
                "jobId": "e64f75d2-78b4-47d2-9318-fd370d55c8d1",
                "displayName": "LED Flicker Job (YELLOW)",
                "actions": [
                    {
                        "actionLibraryId": "12cfcc68-634f-41c1-b5fb-e094cafdd512",
                        "catch": null,
                        "index": 1,
                        "parameter": {},
                        "then": null
                    }
                ],
                "createTime": 1592477337000,
                "createdBy": "user@kyocera.jp",
                "dataVersion": 1,
                "entryPoint": 1,
                "overview": "A job for flickering Raspberry Pi LEDs",
                "remarks": "The remarks of Job 3",
                "requirements": null,
                "updateTime": 1592477337000,
                "updatedBy": "user@kyocera.jp"
            },
            "updatedBy": "e2e_test_account",
            "updateTime": 1601165183557
        },
        {
            "taskId": "f83e50ac-22f8-11eb-adc1-0242ac120002",
            "robotIds": [
                "c854fbc2-38af-4f1d-a155-72df574ed2a7"
            ],
            "createdBy": "e2e_test_account",
            "createTime": 1602765183557,
            "dataVersion": 1,
            "start": {
                "condition": "immediately"
            },
            "exit": {
                "condition": "specifiedNumberOfTimes",
                "option": {
                    "numberOfRuns": 30
                }
            },
            "jobId": "e64f75d2-78b4-47d2-9318-fd370d55c8d1",
            "job": {
                "jobId": "e64f75d2-78b4-47d2-9318-fd370d55c8d1",
                "displayName": "LED Flicker Job (YELLOW)",
                "actions": [
                    {
                        "actionLibraryId": "12cfcc68-634f-41c1-b5fb-e094cafdd512",
                        "catch": null,
                        "index": 1,
                        "parameter": {},
                        "then": null
                    }
                ],
                "createTime": 1592477337000,
                "createdBy": "user@kyocera.jp",
                "dataVersion": 1,
                "entryPoint": 1,
                "overview": "A job for flickering Raspberry Pi LEDs",
                "remarks": "The remarks of Job 3",
                "requirements": null,
                "updateTime": 1592477337000,
                "updatedBy": "user@kyocera.jp"
            },
            "updatedBy": "e2e_test_account",
            "updateTime": 1601165183557
        }
    ],
    "paging": {
        "page": 2,
        "size": 4,
        "totalPages": 2,
        "totalCount": 6
    },
    "count": 2,
    "time": 1602795182227
}