{
  "data": [
    {
      "taskId": "54b50d1e-a4a6-435e-9a38-0eaa91aa2559",
      "robotId": "0149308a-af44-4d03-9864-c5ab5561cd91",
      "startedAt": 0,
      "exitedAt": 0,
      "execDuration": 0,
      "receivedStartReortAt": 0,
      "receivedExitReortAt": 0,
      "status": "queued",
      "resultInfo": "",
      "success": 0,
      "fail": 0,
      "error": 0,
      "dataVersion": 1,
      "createTime": 1592617637000,
      "createdBy": "user@kyocera.jp",
      "updateTime": 1592618421000,
      "updatedBy": "user@kyocera.jp"
    },
    {
      "taskId": "54b50d1e-a4a6-435e-9a38-0eaa91aa2559",
      "robotId": "0c2ede75-65b9-4bce-99d5-a82c2a685655",
      "startedAt": 1592620113000,
      "exitedAt": 0,
      "execDuration": 0,
      "receivedStartReortAt": 1592620112000,
      "receivedExitReortAt": 0,
      "status": "processing",
      "resultInfo": "",
      "success": 21,
      "fail": 0,
      "error": 0,
      "dataVersion": 1,
      "createTime": 1592617637000,
      "createdBy": "user@kyocera.jp",
      "updateTime": 1592618421000,
      "updatedBy": "user@kyocera.jp"
    },
    {
      "taskId": "54b50d1e-a4a6-435e-9a38-0eaa91aa2559",
      "robotId": "c854fbc2-38af-4f1d-a155-72df574ed2a7",
      "startedAt": 1592619013000,
      "exitedAt": 0,
      "execDuration": 0,
      "receivedStartReortAt": 1592619012000,
      "receivedExitReortAt": 0,
      "status": "suspended",
      "resultInfo": "",
      "success": 32,
      "fail": 6,
      "error": 1,
      "dataVersion": 1,
      "createTime": 1592617637000,
      "createdBy": "user@kyocera.jp",
      "updateTime": 1592620110000,
      "updatedBy": "user@kyocera.jp"
    },
    {
      "taskId": "54b50d1e-a4a6-435e-9a38-0eaa91aa2559",
      "robotId": "78abfbd4-6613-42a6-a691-23c3748fa346",
      "startedAt": 1592660113000,
      "exitedAt": 1592661502000,
      "execDuration": 41389000,
      "receivedStartReortAt": 1592652512000,
      "receivedExitReortAt": 1592693902000,
      "status": "succeeded",
      "resultInfo": "All success",
      "success": 73,
      "fail": 0,
      "error": 0,
      "dataVersion": 1,
      "createTime": 1592617637000,
      "createdBy": "user@kyocera.jp",
      "updateTime": 1592661502000,
      "updatedBy": "user@kyocera.jp"
    }
  ],
  "paging": {
    "page": 2,
    "size": 4,
    "totalPages": 16,
    "totalCount": 61
  },
  "count": 4,
  "time": 1592693902000
}