{
    "data": [
        {
            "executionId": "1f9314c0-f64a-11ea-adc1-0242ac120001",
            "taskId": "54b50d1e-a4a6-435e-9a38-0eaa91aa2559",
            "robotId": "78abfbd4-6613-42a6-a691-23c3748fa346",
            "sequenceNumber": 1,
            "executedAt": 1592614435000,
            "receivedExecutionReportAt": 1592614437000,
            "result": "success",
            "context": {}
        },
        {
            "executionId": "2f9314c0-f64a-11ea-adc1-0242ac120002",
            "taskId": "54b50d1e-a4a6-435e-9a38-0eaa91aa2559",
            "robotId": "78abfbd4-6613-42a6-a691-23c3748fa346",
            "sequenceNumber": 2,
            "executedAt": 1592614436000,
            "receivedExecutionReportAt": 1592614438000,
            "result": "success",
            "context": {}
        },
        {
            "executionId": "3f9314c0-f64a-11ea-adc1-0242ac120003",
            "taskId": "54b50d1e-a4a6-435e-9a38-0eaa91aa2559",
            "robotId": "78abfbd4-6613-42a6-a691-23c3748fa346",
            "sequenceNumber": 3,
            "executedAt": 1592614437000,
            "receivedExecutionReportAt": 1592614439000,
            "result": "fail",
            "context": {}
        },
        {
            "executionId": "4f9314c0-f64a-11ea-adc1-0242ac120004",
            "taskId": "54b50d1e-a4a6-435e-9a38-0eaa91aa2559",
            "robotId": "78abfbd4-6613-42a6-a691-23c3748fa346",
            "sequenceNumber": 4,
            "executedAt": 1592614439000,
            "receivedExecutionReportAt": 1592614440000,
            "result": "success",
            "context": {}
        },
        {
            "executionId": "5f9314c0-f64a-11ea-adc1-0242ac120005",
            "taskId": "54b50d1e-a4a6-435e-9a38-0eaa91aa2559",
            "robotId": "78abfbd4-6613-42a6-a691-23c3748fa346",
            "sequenceNumber": 5,
            "executedAt": 1592614438000,
            "receivedExecutionReportAt": 1592614440100,
            "result": "success",
            "context": {}
        },
        {
            "executionId": "6f9314c0-f64a-11ea-adc1-0242ac120006",
            "taskId": "54b50d1e-a4a6-435e-9a38-0eaa91aa2559",
            "robotId": "78abfbd4-6613-42a6-a691-23c3748fa346",
            "sequenceNumber": 6,
            "executedAt": 1592614440000,
            "receivedExecutionReportAt": 1592614441000,
            "result": "success",
            "context": {}
        },
        {
            "executionId": "7f9314c0-f64a-11ea-adc1-0242ac120007",
            "taskId": "54b50d1e-a4a6-435e-9a38-0eaa91aa2559",
            "robotId": "78abfbd4-6613-42a6-a691-23c3748fa346",
            "sequenceNumber": 7,
            "executedAt": 1592614441000,
            "receivedExecutionReportAt": 1592614442000,
            "result": "success",
            "context": {}
        },
        {
            "executionId": "8f9314c0-f64a-11ea-adc1-0242ac120008",
            "taskId": "54b50d1e-a4a6-435e-9a38-0eaa91aa2559",
            "robotId": "78abfbd4-6613-42a6-a691-23c3748fa346",
            "sequenceNumber": 8,
            "executedAt": 1592614442000,
            "receivedExecutionReportAt": 1592614449000,
            "result": "success",
            "context": {}
        },
        {
            "executionId": "9f9314c0-f64a-11ea-adc1-0242ac120009",
            "taskId": "54b50d1e-a4a6-435e-9a38-0eaa91aa2559",
            "robotId": "78abfbd4-6613-42a6-a691-23c3748fa346",
            "sequenceNumber": 9,
            "executedAt": 1592614443000,
            "receivedExecutionReportAt": 1592614449100,
            "result": "fail",
            "context": {}
        },
        {
            "executionId": "af9314c0-f64a-11ea-adc1-0242ac12000a",
            "taskId": "54b50d1e-a4a6-435e-9a38-0eaa91aa2559",
            "robotId": "78abfbd4-6613-42a6-a691-23c3748fa346",
            "sequenceNumber": 10,
            "executedAt": 1592614444000,
            "receivedExecutionReportAt": 1592614449200,
            "result": "success",
            "context": {}
        }
    ],
    "paging": {
        "page": 2,
        "size": 10,
        "totalPages": 11,
        "totalCount": 108
    },
    "count": 10,
    "time": 1592792512000
}